…
## Parte 3

**Pregunta1**

``` r
df_t1 <- as_tibble(read.csv("temperatureDataset.csv"))
(df_t2 <- df_t1 %>% 
  dplyr::mutate(DATE = as.Date(DATE, format = "%d/%m/%Y")) %>% 
  dplyr::select(DATE, qc00000805) %>%
  rename(tt = qc00000805) %>% 
  dplyr::mutate(tt = ifelse(tt == -99.9, NA, tt)))
```

    ## # A tibble: 31,775 x 2
    ##    DATE          tt
    ##    <date>     <dbl>
    ##  1 1928-11-02    NA
    ##  2 1928-11-03    NA
    ##  3 1928-11-04    NA
    ##  4 1928-11-05    NA
    ##  5 1928-11-06    NA
    ##  6 1928-11-07    NA
    ##  7 1928-11-08    NA
    ##  8 1928-11-09    NA
    ##  9 1928-11-10    NA
    ## 10 1928-11-11    NA
    ## # ... with 31,765 more rows

**1 A**

``` r
(df_t3 <- df_t2 %>% 
  dplyr::filter(DATE >= "1983-09-01" & DATE < "1984-08-31" | 
                  DATE >= "1997-09-01" & DATE < "1998-08-31"))
```

    ## # A tibble: 729 x 2
    ##    DATE          tt
    ##    <date>     <dbl>
    ##  1 1983-09-01  22  
    ##  2 1983-09-02  22  
    ##  3 1983-09-03  22.6
    ##  4 1983-09-04  22  
    ##  5 1983-09-05  24  
    ##  6 1983-09-06  24.4
    ##  7 1983-09-07  24  
    ##  8 1983-09-08  26  
    ##  9 1983-09-09  24.4
    ## 10 1983-09-10  25  
    ## # ... with 719 more rows
…
(df_t4 <- df_t2 %>% 
  group_by(DATE = str_sub(DATE, 1, 7)) %>% 
  mutate(MissVal = sum(is.na(tt))*100/n()) %>% 
  summarise(
    tt = mean(tt, na.rm = T),
    MissVal = unique(MissVal)
  ) %>% 
  mutate(
    tt = ifelse(MissVal >= 5, NA, tt),
    DATE = as.Date(sprintf("%1$s-01", DATE)),
    month = str_sub(DATE, 6, 7)
  ))
```

    ## # A tibble: 1,044 x 4
    ##    DATE          tt MissVal month
    ##    <date>     <dbl>   <dbl> <chr>
    ##  1 1928-11-01    NA     100 11   
    ##  2 1928-12-01    NA     100 12   
    ##  3 1929-01-01    NA     100 01   
    ##  4 1929-02-01    NA     100 02   
    ##  5 1929-03-01    NA     100 03   
    ##  6 1929-04-01    NA     100 04   
    ##  7 1929-05-01    NA     100 05   
    ##  8 1929-06-01    NA     100 06   
    ##  9 1929-07-01    NA     100 07   
    ## 10 1929-08-01    NA     100 08   
    ## # ... with 1,034 more rows
…
    group_by(DATE = str_sub(DATE, 1, 7)) %>% 
    mutate(MissVal = sum(is.na(tt))) %>% 
    summarise(
      tt = mean(tt, na.rm = T),
      MissVal = unique(MissVal)
    ) %>% 
    dplyr::filter(DATE >= "2005-01-01" & DATE < "2005-12-31" |
                    DATE >= "2010-01-01" & DATE < "2010-12-31") %>% 
    mutate(
      DATE = as.Date(sprintf("%1$s-01", DATE)),
      month = str_sub(DATE, 6, 7)
    ))
```

    ## # A tibble: 22 x 4
    ##    DATE          tt MissVal month
    ##    <date>     <dbl>   <int> <chr>
    ##  1 2005-02-01  25.0       0 02   
    ##  2 2005-03-01  24.8       0 03   
    ##  3 2005-04-01  24.5       0 04   
    ##  4 2005-05-01  24.5       0 05   
    ##  5 2005-06-01  24.8       0 06   
    ##  6 2005-07-01  23.7       0 07   
    ##  7 2005-08-01  25.1       0 08   
    ##  8 2005-09-01  24.5       0 09   
    ##  9 2005-10-01  24.4       0 10   
    ## 10 2005-11-01  24.8       0 11   
    ## # ... with 12 more rows

**1 D**

``` r
funcion2 <- function(data_temp){
  dplyr::filter(data_temp, DATE >= "1980-01-01" & DATE < "1995-12-31" | 
                  DATE >= "1996-01-01" & DATE < "2010-12-31") %>% 
    group_by(DATE = str_sub(DATE, 1,7)) %>% 
    summarise(ttmean = mean(tt, na.rm = T)) %>% 
    return()
    }
(df_t6 <- funcion2(df_t2))
```

    ## # A tibble: 372 x 2
    ##    DATE    ttmean
    ##    <chr>    <dbl>
    ##  1 1980-01   26.8
    ##  2 1980-02   25.3
    ##  3 1980-03   27.1
    ##  4 1980-04   26.3
    ##  5 1980-05   25.9
    ##  6 1980-06   25.6
    ##  7 1980-07   25.8
    ##  8 1980-08   25.6
    ##  9 1980-09   26.1
    ## 10 1980-10   26.4
    ## # ... with 362 more rows
…
